<svg width="16" height="16" viewBox="0 0 16 16" fill="none" xmlns="http://www.w3.org/2000/svg">
<path fill-rule="evenodd" clip-rule="evenodd" d="M11.2371 3.25348C13.4417 5.4581 13.4417 9.0325 11.2371 11.2371C9.03245 13.4417 5.45808 13.4417 3.25346 11.2371C1.04884 9.0325 1.04884 5.4581 3.25346 3.25348C5.45808 1.04886 9.03245 1.04886 11.2371 3.25348ZM12.9033 11.7719C15.185 8.92709 15.0067 4.76038 12.3684 2.1221C9.53898 -0.707367 4.95155 -0.707367 2.12208 2.1221C-0.707359 4.95157 -0.707359 9.53903 2.12208 12.3685C4.76035 15.0068 8.9271 15.1851 11.7719 12.9033L14.8305 15.9619L15.9619 14.8305L12.9033 11.7719Z" fill="#BDC3C7"/>
</svg>
